{
  "type": "transfer",
  "pending": true,
  "amount": "100.95",
  "fee_amount": "100.95",
  "reward_amount": "100.95",
  "reward_rate": "0.0199",
  "transfer_account_id": "string",
  "method": "card present",
  "id": "6AOU0jwFQw3sMZJ",
  "account_id": "string",
  "description": "Finance Charge",
  "memo": "Check #318",
  "category": [
    "string"
  ],
  "tags": [
    "string"
  ],
  "ending_balance": "100.95",
  "transacted_at": "2019-08-24T14:15:22Z",
  "settled_at": "2019-08-24T14:15:22Z",
  "spender_identity_id": "string",
  "merchant_identity_id": "string",
  "geolocation": {
    "coordinates": {
      "lat": 0,
      "lon": 0
    },
    "city": "string",
    "region": "US",
    "country": "US"
  },
  "reward_currency": "USD",
  "reward_non_iso_currency": "string",
  "currency": "USD",
  "non_iso_currency": "string"
}
