{
  "account_id": "BxBXxLj1m4HMXBm9WZZmCWVbPjX16EHwv99vp",
  "amount": 2307.21,
  "iso_currency_code": "USD",
  "unofficial_currency_code": null,
  "category": [
    "Shops",
    "Computers and Electronics"
  ],
  "category_id": "19013000",
  "check_number": null,
  "date": "2022-02-03",
  "datetime": "2022-02-03T11:00:00Z",
  "authorized_date": "2022-02-03",
  "authorized_datetime": "2022-02-03T10:34:50Z",
  "location": {
    "address": "300 Post St",
    "city": "San Francisco",
    "region": "CA",
    "postal_code": "94108",
    "country": "US",
    "lat": 40.740352,
    "lon": -74.001761,
    "store_number": "1235"
  },
  "name": "Apple Store",
  "merchant_name": "Apple",
  "payment_meta": {
    "by_order_of": null,
    "payee": null,
    "payer": null,
    "payment_method": null,
    "payment_processor": null,
    "ppd_id": null,
    "reason": null,
    "reference_number": null
  },
  "payment_channel": "in store",
  "pending": false,
  "pending_transaction_id": null,
  "account_owner": null,
  "transaction_id": "lPNjeW1nR6CDn5okmGQ6hEpMo4lLNoSrzqDje",
  "transaction_code": null
}
