{
  "id": "6AOU0jwFQw3sMZJ",
  "account_id": "string",
  "description": "Finance Charge",
  "memo": "Check #318",
  "category": [
    "string"
  ],
  "tags": [
    "string"
  ],
  "ending_balance": "100.95",
  "transacted_at": "2018-08-28",
  "settled_at": "2018-08-28",
  "spender_identity_id": "string",
  "merchant_identity_id": "string",
  "geolocation": {
    "coordinates": {
      "lat": 0,
      "lon": 0
    },
    "city": "string",
    "region": "US",
    "country": "US"
  },
  "reward_currency": "USD",
  "reward_non_iso_currency": "string",
  "currency": "USD",
  "non_iso_currency": "string"
}
